{"failedCount":0,"prefixedPath":"src\/test\/java\/Features\/Assignment.feature","packageQualifiedName":"src.test.java.Features.Assignment","loopIndex":-1,"relativePath":"src\/test\/java\/Features\/Assignment.feature","scenarioResults":[{"sectionIndex":0,"stepResults":[{"result":{"nanos":64605759,"millis":64.605759,"status":"passed"},"step":{"background":true,"line":4,"prefix":"*","index":0,"text":"url 'https:\/\/reqres.in'"}},{"result":{"nanos":638621,"millis":0.638621,"status":"passed"},"step":{"background":true,"line":5,"prefix":"*","index":1,"text":"header Accept = 'application\/json'"}},{"result":{"nanos":1249325,"millis":1.249325,"status":"passed"},"step":{"background":true,"line":6,"prefix":"*","index":2,"text":"def usersPath = '\/api\/users'"}},{"result":{"nanos":10447577,"millis":10.447577,"status":"passed"},"step":{"line":9,"prefix":"Given","index":0,"text":"path usersPath"}},{"result":{"nanos":784989122,"millis":784.989122,"status":"passed"},"step":{"line":10,"prefix":"When","index":1,"text":"method GET"},"stepLog":"09:47:56.019 request:\n1 > GET https:\/\/reqres.in\/api\/users\n1 > Accept: application\/json\n1 > Host: reqres.in\n1 > Connection: Keep-Alive\n1 > User-Agent: Apache-HttpClient\/4.5.13 (Java\/11.0.15)\n1 > Accept-Encoding: gzip,deflate\n\n\n09:47:56.553 response time in milliseconds: 527\n1 < 200\n1 < Date: Fri, 29 Apr 2022 04:47:56 GMT\n1 < Content-Type: application\/json; charset=utf-8\n1 < Transfer-Encoding: chunked\n1 < Connection: keep-alive\n1 < X-Powered-By: Express\n1 < Access-Control-Allow-Origin: *\n1 < Etag: W\/\"3e4-2RLXvr5wTg9YQ6aH95CkYoFNuO8\"\n1 < Via: 1.1 vegur\n1 < Cache-Control: max-age=14400\n1 < CF-Cache-Status: HIT\n1 < Age: 4508\n1 < Expect-CT: max-age=604800, report-uri=\"https:\/\/report-uri.cloudflare.com\/cdn-cgi\/beacon\/expect-ct\"\n1 < Report-To: {\"endpoints\":[{\"url\":\"https:\\\/\\\/a.nel.cloudflare.com\\\/report\\\/v3?s=Cn7kyY6VRkFT6ThogLX4crx2It%2FeTqIeid6cEJh%2B%2BTrltZKkEpERQi8NhjY8kTmFHUuSUaS3iLMt0mEUz7k9YFbh36xBDY3AXe%2BsccqP3PCFtyZPUkSuH%2BJGrNs%3D\"}],\"group\":\"cf-nel\",\"max_age\":604800}\n1 < NEL: {\"success_fraction\":0,\"report_to\":\"cf-nel\",\"max_age\":604800}\n1 < Vary: Accept-Encoding\n1 < Server: cloudflare\n1 < CF-RAY: 70356709e99f9fef-SIN\n1 < alt-svc: h3=\":443\"; ma=86400, h3-29=\":443\"; ma=86400\n{\"page\":1,\"per_page\":6,\"total\":12,\"total_pages\":2,\"data\":[{\"id\":1,\"email\":\"george.bluth@reqres.in\",\"first_name\":\"George\",\"last_name\":\"Bluth\",\"avatar\":\"https:\/\/reqres.in\/img\/faces\/1-image.jpg\"},{\"id\":2,\"email\":\"janet.weaver@reqres.in\",\"first_name\":\"Janet\",\"last_name\":\"Weaver\",\"avatar\":\"https:\/\/reqres.in\/img\/faces\/2-image.jpg\"},{\"id\":3,\"email\":\"emma.wong@reqres.in\",\"first_name\":\"Emma\",\"last_name\":\"Wong\",\"avatar\":\"https:\/\/reqres.in\/img\/faces\/3-image.jpg\"},{\"id\":4,\"email\":\"eve.holt@reqres.in\",\"first_name\":\"Eve\",\"last_name\":\"Holt\",\"avatar\":\"https:\/\/reqres.in\/img\/faces\/4-image.jpg\"},{\"id\":5,\"email\":\"charles.morris@reqres.in\",\"first_name\":\"Charles\",\"last_name\":\"Morris\",\"avatar\":\"https:\/\/reqres.in\/img\/faces\/5-image.jpg\"},{\"id\":6,\"email\":\"tracey.ramos@reqres.in\",\"first_name\":\"Tracey\",\"last_name\":\"Ramos\",\"avatar\":\"https:\/\/reqres.in\/img\/faces\/6-image.jpg\"}],\"support\":{\"url\":\"https:\/\/reqres.in\/#support-heading\",\"text\":\"To keep ReqRes free, contributions towards server costs are appreciated!\"}}\n"},{"result":{"nanos":28539,"millis":0.028539,"status":"passed"},"step":{"line":11,"prefix":"Then","index":2,"text":"status 200"}},{"result":{"nanos":47072405,"millis":47.072405,"status":"passed"},"step":{"line":12,"prefix":"And","index":3,"text":"print response"},"stepLog":"09:47:56.655 [print] {\n  \"page\": 1,\n  \"per_page\": 6,\n  \"total\": 12,\n  \"total_pages\": 2,\n  \"data\": [\n    {\n      \"id\": 1,\n      \"email\": \"george.bluth@reqres.in\",\n      \"first_name\": \"George\",\n      \"last_name\": \"Bluth\",\n      \"avatar\": \"https:\/\/reqres.in\/img\/faces\/1-image.jpg\"\n    },\n    {\n      \"id\": 2,\n      \"email\": \"janet.weaver@reqres.in\",\n      \"first_name\": \"Janet\",\n      \"last_name\": \"Weaver\",\n      \"avatar\": \"https:\/\/reqres.in\/img\/faces\/2-image.jpg\"\n    },\n    {\n      \"id\": 3,\n      \"email\": \"emma.wong@reqres.in\",\n      \"first_name\": \"Emma\",\n      \"last_name\": \"Wong\",\n      \"avatar\": \"https:\/\/reqres.in\/img\/faces\/3-image.jpg\"\n    },\n    {\n      \"id\": 4,\n      \"email\": \"eve.holt@reqres.in\",\n      \"first_name\": \"Eve\",\n      \"last_name\": \"Holt\",\n      \"avatar\": \"https:\/\/reqres.in\/img\/faces\/4-image.jpg\"\n    },\n    {\n      \"id\": 5,\n      \"email\": \"charles.morris@reqres.in\",\n      \"first_name\": \"Charles\",\n      \"last_name\": \"Morris\",\n      \"avatar\": \"https:\/\/reqres.in\/img\/faces\/5-image.jpg\"\n    },\n    {\n      \"id\": 6,\n      \"email\": \"tracey.ramos@reqres.in\",\n      \"first_name\": \"Tracey\",\n      \"last_name\": \"Ramos\",\n      \"avatar\": \"https:\/\/reqres.in\/img\/faces\/6-image.jpg\"\n    }\n  ],\n  \"support\": {\n    \"url\": \"https:\/\/reqres.in\/#support-heading\",\n    \"text\": \"To keep ReqRes free, contributions towards server costs are appreciated!\"\n  }\n}\n \n"},{"result":{"nanos":8935994,"millis":8.935994,"status":"passed"},"step":{"line":13,"prefix":"*","index":4,"text":"def jsonResponse = response"}},{"result":{"nanos":1223772,"millis":1.223772,"status":"passed"},"step":{"line":14,"prefix":"*","index":5,"text":"def totalPages =  jsonResponse.total_pages"}},{"result":{"nanos":746715,"millis":0.746715,"status":"passed"},"step":{"line":15,"prefix":"*","index":6,"text":"def totalRecords = jsonResponse.total"}},{"result":{"nanos":7839610,"millis":7.83961,"status":"passed"},"step":{"line":16,"prefix":"Then","index":7,"text":"match totalPages == 2"}},{"result":{"nanos":1230722,"millis":1.230722,"status":"passed"},"step":{"line":17,"prefix":"And","index":8,"text":"match totalRecords == 12"}}],"executorName":"main","line":8,"name":"Fatch User list and assert total pages and total records","description":"","durationMillis":929.008161,"startTime":1651207675738,"failed":false,"refId":"[1:8]","endTime":1651207676677,"exampleIndex":-1},{"sectionIndex":1,"stepResults":[{"result":{"nanos":371036,"millis":0.371036,"status":"passed"},"step":{"background":true,"line":4,"prefix":"*","index":0,"text":"url 'https:\/\/reqres.in'"}},{"result":{"nanos":219590,"millis":0.21959,"status":"passed"},"step":{"background":true,"line":5,"prefix":"*","index":1,"text":"header Accept = 'application\/json'"}},{"result":{"nanos":235986,"millis":0.235986,"status":"passed"},"step":{"background":true,"line":6,"prefix":"*","index":2,"text":"def usersPath = '\/api\/users'"}},{"result":{"nanos":97366,"millis":0.097366,"status":"passed"},"step":{"line":20,"prefix":"Given","index":0,"text":"path usersPath"}},{"result":{"nanos":10446532,"millis":10.446532,"status":"passed"},"step":{"line":21,"prefix":"And","index":1,"text":"request {\"name\": \"Waris\", \"Job\": \"QA Engineer\"}"}},{"result":{"nanos":743851793,"millis":743.851793,"status":"passed"},"step":{"line":22,"prefix":"When","index":2,"text":"method POST"},"stepLog":"09:47:56.722 request:\n1 > POST https:\/\/reqres.in\/api\/users\n1 > Accept: application\/json\n1 > Content-Type: application\/json; charset=UTF-8\n1 > Content-Length: 36\n1 > Host: reqres.in\n1 > Connection: Keep-Alive\n1 > User-Agent: Apache-HttpClient\/4.5.13 (Java\/11.0.15)\n1 > Accept-Encoding: gzip,deflate\n{\"name\":\"Waris\",\"Job\":\"QA Engineer\"}\n\n09:47:57.436 response time in milliseconds: 713\n1 < 201\n1 < Date: Fri, 29 Apr 2022 04:47:57 GMT\n1 < Content-Type: application\/json; charset=utf-8\n1 < Content-Length: 86\n1 < Connection: keep-alive\n1 < X-Powered-By: Express\n1 < Access-Control-Allow-Origin: *\n1 < Etag: W\/\"56-zbPnU7LxObGuUD2tuOqaFMCdX64\"\n1 < Via: 1.1 vegur\n1 < CF-Cache-Status: DYNAMIC\n1 < Expect-CT: max-age=604800, report-uri=\"https:\/\/report-uri.cloudflare.com\/cdn-cgi\/beacon\/expect-ct\"\n1 < Report-To: {\"endpoints\":[{\"url\":\"https:\\\/\\\/a.nel.cloudflare.com\\\/report\\\/v3?s=yQeCjRjcxMiRjmZJEfrIAFzMIXMnw23GG6PEdMSEmsHxeJ849zskUt%2FZ3Ax2AYtKTHg82epjCcnNkXVqF6SEZMmdkujhBEhuV1tdDu4GfqGmT%2FtcxkjFnhixozE%3D\"}],\"group\":\"cf-nel\",\"max_age\":604800}\n1 < NEL: {\"success_fraction\":0,\"report_to\":\"cf-nel\",\"max_age\":604800}\n1 < Server: cloudflare\n1 < CF-RAY: 7035670d5c1d9f6b-SIN\n1 < alt-svc: h3=\":443\"; ma=86400, h3-29=\":443\"; ma=86400\n{\"name\":\"Waris\",\"Job\":\"QA Engineer\",\"id\":\"713\",\"createdAt\":\"2022-04-29T04:47:57.303Z\"}\n"},{"result":{"nanos":30452,"millis":0.030452,"status":"passed"},"step":{"line":23,"prefix":"Then","index":3,"text":"status 201"}},{"result":{"nanos":1656213,"millis":1.656213,"status":"passed"},"step":{"line":24,"prefix":"And","index":4,"text":"print response"},"stepLog":"09:47:57.440 [print] {\n  \"name\": \"Waris\",\n  \"Job\": \"QA Engineer\",\n  \"id\": \"713\",\n  \"createdAt\": \"2022-04-29T04:47:57.303Z\"\n}\n \n"},{"result":{"nanos":2300478,"millis":2.300478,"status":"passed"},"step":{"line":25,"prefix":"*","index":5,"text":"def newUserName = response.name"}},{"result":{"nanos":2336920,"millis":2.33692,"status":"passed"},"step":{"line":26,"prefix":"*","index":6,"text":"def newUserJob = response.Job"}},{"result":{"nanos":1951108,"millis":1.951108,"status":"passed"},"step":{"line":27,"prefix":"*","index":7,"text":"def newUserId = response.id"}},{"result":{"nanos":6351157,"millis":6.351157,"status":"passed"},"step":{"line":28,"prefix":"And","index":8,"text":"match newUserId != null"}},{"result":{"nanos":1774768,"millis":1.774768,"status":"passed"},"step":{"line":29,"prefix":"And","index":9,"text":"print newUserId"},"stepLog":"09:47:57.455 [print] 713 \n"}],"executorName":"main","line":19,"name":"Create new user and assert ID assigned","description":"","durationMillis":771.623399,"startTime":1651207676682,"failed":false,"refId":"[2:19]","endTime":1651207677456,"exampleIndex":-1},{"sectionIndex":2,"stepResults":[{"result":{"nanos":274550,"millis":0.27455,"status":"passed"},"step":{"background":true,"line":4,"prefix":"*","index":0,"text":"url 'https:\/\/reqres.in'"}},{"result":{"nanos":233488,"millis":0.233488,"status":"passed"},"step":{"background":true,"line":5,"prefix":"*","index":1,"text":"header Accept = 'application\/json'"}},{"result":{"nanos":318524,"millis":0.318524,"status":"passed"},"step":{"background":true,"line":6,"prefix":"*","index":2,"text":"def usersPath = '\/api\/users'"}},{"result":{"nanos":159924,"millis":0.159924,"status":"passed"},"step":{"line":32,"prefix":"Given","index":0,"text":"path usersPath"}},{"result":{"nanos":318810,"millis":0.31881,"status":"passed"},"step":{"line":33,"prefix":"And","index":1,"text":"request {\"name\": \"Waris\", \"Job\": \"QA Engineer\"}"}},{"result":{"nanos":751161236,"millis":751.161236,"status":"passed"},"step":{"line":34,"prefix":"When","index":2,"text":"method POST"},"stepLog":"09:47:57.466 request:\n1 > POST https:\/\/reqres.in\/api\/users\n1 > Accept: application\/json\n1 > Content-Type: application\/json; charset=UTF-8\n1 > Content-Length: 36\n1 > Host: reqres.in\n1 > Connection: Keep-Alive\n1 > User-Agent: Apache-HttpClient\/4.5.13 (Java\/11.0.15)\n1 > Accept-Encoding: gzip,deflate\n{\"name\":\"Waris\",\"Job\":\"QA Engineer\"}\n\n09:47:58.212 response time in milliseconds: 745\n1 < 201\n1 < Date: Fri, 29 Apr 2022 04:47:58 GMT\n1 < Content-Type: application\/json; charset=utf-8\n1 < Content-Length: 86\n1 < Connection: keep-alive\n1 < X-Powered-By: Express\n1 < Access-Control-Allow-Origin: *\n1 < Etag: W\/\"56-4SGMysO4o1Pb2L4TZfI5E1Fd6LI\"\n1 < Via: 1.1 vegur\n1 < CF-Cache-Status: DYNAMIC\n1 < Expect-CT: max-age=604800, report-uri=\"https:\/\/report-uri.cloudflare.com\/cdn-cgi\/beacon\/expect-ct\"\n1 < Report-To: {\"endpoints\":[{\"url\":\"https:\\\/\\\/a.nel.cloudflare.com\\\/report\\\/v3?s=0hYhhyv3KZQPKymQxdCMFaBlGxrfKwHG%2BgxU%2FFtB1Uwph6m6Tz35Nu089U5kxbTKoNaK9ps6%2FATFLBfowHW4rz6ukpsPmhg%2F8nReJ2d1C1zuB8LxWH%2BSFX7l%2Bmo%3D\"}],\"group\":\"cf-nel\",\"max_age\":604800}\n1 < NEL: {\"success_fraction\":0,\"report_to\":\"cf-nel\",\"max_age\":604800}\n1 < Server: cloudflare\n1 < CF-RAY: 70356711fcd249ae-SIN\n1 < alt-svc: h3=\":443\"; ma=86400, h3-29=\":443\"; ma=86400\n{\"name\":\"Waris\",\"Job\":\"QA Engineer\",\"id\":\"665\",\"createdAt\":\"2022-04-29T04:47:58.064Z\"}\n"},{"result":{"nanos":36790,"millis":0.03679,"status":"passed"},"step":{"line":35,"prefix":"Then","index":3,"text":"status 201"}},{"result":{"nanos":2380933,"millis":2.380933,"status":"passed"},"step":{"line":36,"prefix":"And","index":4,"text":"print response"},"stepLog":"09:47:58.218 [print] {\n  \"name\": \"Waris\",\n  \"Job\": \"QA Engineer\",\n  \"id\": \"665\",\n  \"createdAt\": \"2022-04-29T04:47:58.064Z\"\n}\n \n"},{"result":{"nanos":1540908,"millis":1.540908,"status":"passed"},"step":{"line":37,"prefix":"*","index":5,"text":"def newUserName = response.name"}},{"result":{"nanos":8973031,"millis":8.973031,"status":"passed"},"step":{"line":38,"prefix":"*","index":6,"text":"def newUserJob = response.JJob"}},{"result":{"nanos":908923,"millis":0.908923,"status":"passed"},"step":{"line":39,"prefix":"*","index":7,"text":"def newUserId = response.id"}},{"result":{"nanos":1352222,"millis":1.352222,"status":"passed"},"step":{"line":40,"prefix":"And","index":8,"text":"match newUserId != null"}},{"result":{"nanos":1226492,"millis":1.226492,"status":"passed"},"step":{"line":41,"prefix":"And","index":9,"text":"print newUserId"},"stepLog":"09:47:58.234 [print] 665 \n"},{"result":{"nanos":477675,"millis":0.477675,"status":"passed"},"step":{"line":42,"prefix":"When","index":10,"text":"path usersPath"}},{"result":{"nanos":984368,"millis":0.984368,"status":"passed"},"step":{"line":43,"prefix":"And","index":11,"text":"path newUserId"}},{"result":{"nanos":481719,"millis":0.481719,"status":"passed"},"step":{"line":44,"prefix":"And","index":12,"text":"request {\"name\": \"Ali\", \"Job\": \"QA Automation Engineer\"}"}},{"result":{"nanos":799474525,"millis":799.474525,"status":"passed"},"step":{"line":45,"prefix":"And","index":13,"text":"method PUT"},"stepLog":"09:47:58.239 request:\n2 > PUT https:\/\/reqres.in\/api\/users\/665\n2 > Content-Type: application\/json; charset=UTF-8\n2 > Content-Length: 45\n2 > Host: reqres.in\n2 > Connection: Keep-Alive\n2 > User-Agent: Apache-HttpClient\/4.5.13 (Java\/11.0.15)\n2 > Accept-Encoding: gzip,deflate\n{\"name\":\"Ali\",\"Job\":\"QA Automation Engineer\"}\n\n09:47:59.035 response time in milliseconds: 795\n2 < 200\n2 < Date: Fri, 29 Apr 2022 04:47:58 GMT\n2 < Content-Type: application\/json; charset=utf-8\n2 < Transfer-Encoding: chunked\n2 < Connection: keep-alive\n2 < X-Powered-By: Express\n2 < Access-Control-Allow-Origin: *\n2 < Etag: W\/\"54-vxaLwITP8cYnq58F5TtrN0K\/9V8\"\n2 < Via: 1.1 vegur\n2 < CF-Cache-Status: DYNAMIC\n2 < Expect-CT: max-age=604800, report-uri=\"https:\/\/report-uri.cloudflare.com\/cdn-cgi\/beacon\/expect-ct\"\n2 < Report-To: {\"endpoints\":[{\"url\":\"https:\\\/\\\/a.nel.cloudflare.com\\\/report\\\/v3?s=LJgFHeyJaU3lPEuABzCeT2QsvJlt%2FPfNCwNiO0hebgCyOO%2FxpHja0%2F8DU4r5Hi9vCsVxjynBjC42FTKye5SoKjcJ%2BQehQGydqogk5TYBpZrT3jih%2BZBu%2Bv%2FQhmA%3D\"}],\"group\":\"cf-nel\",\"max_age\":604800}\n2 < NEL: {\"success_fraction\":0,\"report_to\":\"cf-nel\",\"max_age\":604800}\n2 < Vary: Accept-Encoding\n2 < Server: cloudflare\n2 < CF-RAY: 70356716b8d24613-SIN\n2 < alt-svc: h3=\":443\"; ma=86400, h3-29=\":443\"; ma=86400\n{\"name\":\"Ali\",\"Job\":\"QA Automation Engineer\",\"updatedAt\":\"2022-04-29T04:47:58.814Z\"}\n"},{"result":{"nanos":19272,"millis":0.019272,"status":"passed"},"step":{"line":46,"prefix":"Then","index":14,"text":"status 200"}},{"result":{"nanos":1409571,"millis":1.409571,"status":"passed"},"step":{"line":47,"prefix":"And","index":15,"text":"print response"},"stepLog":"09:47:59.037 [print] {\n  \"name\": \"Ali\",\n  \"Job\": \"QA Automation Engineer\",\n  \"updatedAt\": \"2022-04-29T04:47:58.814Z\"\n}\n \n"},{"result":{"nanos":1089755,"millis":1.089755,"status":"passed"},"step":{"line":48,"prefix":"*","index":16,"text":"def updateUserName = response.name"}},{"result":{"nanos":695171,"millis":0.695171,"status":"passed"},"step":{"line":49,"prefix":"*","index":17,"text":"def updateUserJob = response.Job"}},{"result":{"nanos":672744,"millis":0.672744,"status":"passed"},"step":{"line":50,"prefix":"And","index":18,"text":"match newUserName != updateUserName"}},{"result":{"nanos":1536608,"millis":1.536608,"status":"passed"},"step":{"line":51,"prefix":"And","index":19,"text":"match newUserName != 'Ali'"}},{"result":{"nanos":820078,"millis":0.820078,"status":"passed"},"step":{"line":52,"prefix":"And","index":20,"text":"match newUserJob != updateUserJob"}},{"result":{"nanos":1367368,"millis":1.367368,"status":"passed"},"step":{"line":53,"prefix":"And","index":21,"text":"match newUserJob != \"QA Automation Engineer\""}}],"executorName":"main","line":31,"name":"Create new user, update that user and assert data","description":"","durationMillis":1577.914685,"startTime":1651207677462,"failed":false,"refId":"[3:31]","endTime":1651207679045,"exampleIndex":-1}],"callDepth":0,"name":"CURD operations for o reqres.in","description":"","resultDate":"2022-04-29 09:47:59 AM","durationMillis":3278.546245,"passedCount":3}