{"failedCount":1,"prefixedPath":"src\/test\/java\/Features\/Get.feature","packageQualifiedName":"src.test.java.Features.Get","loopIndex":-1,"relativePath":"src\/test\/java\/Features\/Get.feature","scenarioResults":[{"sectionIndex":2,"stepResults":[{"result":{"nanos":63558053,"millis":63.558053,"status":"passed"},"step":{"background":true,"line":4,"prefix":"*","index":0,"text":"url 'https:\/\/reqres.in\/api'"}},{"result":{"nanos":888988,"millis":0.888988,"status":"passed"},"step":{"background":true,"line":5,"prefix":"*","index":1,"text":"header Accept = 'application\/json'"}},{"result":{"nanos":518812,"millis":0.518812,"status":"passed"},"step":{"line":20,"prefix":"Given","index":0,"text":"path '\/users'"}},{"result":{"nanos":1641334,"millis":1.641334,"status":"passed"},"step":{"line":21,"prefix":"And","index":1,"text":"param page = 2"}},{"result":{"nanos":1001333146,"millis":1001.333146,"status":"passed"},"step":{"line":22,"prefix":"When","index":2,"text":"method GET"},"stepLog":"08:38:19.293 request:\n1 > GET https:\/\/reqres.in\/api\/users?page=2\n1 > Accept: application\/json\n1 > Host: reqres.in\n1 > Connection: Keep-Alive\n1 > User-Agent: Apache-HttpClient\/4.5.13 (Java\/11.0.15)\n1 > Accept-Encoding: gzip,deflate\n\n\n08:38:20.067 response time in milliseconds: 770\n1 < 200\n1 < Date: Fri, 29 Apr 2022 03:38:19 GMT\n1 < Content-Type: application\/json; charset=utf-8\n1 < Transfer-Encoding: chunked\n1 < Connection: keep-alive\n1 < X-Powered-By: Express\n1 < Access-Control-Allow-Origin: *\n1 < Etag: W\/\"406-ut0vzoCuidvyMf8arZpMpJ6ZRDw\"\n1 < Via: 1.1 vegur\n1 < Cache-Control: max-age=14400\n1 < CF-Cache-Status: HIT\n1 < Age: 6471\n1 < Expect-CT: max-age=604800, report-uri=\"https:\/\/report-uri.cloudflare.com\/cdn-cgi\/beacon\/expect-ct\"\n1 < Report-To: {\"endpoints\":[{\"url\":\"https:\\\/\\\/a.nel.cloudflare.com\\\/report\\\/v3?s=oqJrggSQBU157okTAU3yVbLkcATpdopHZUCIYYkk6GeBL51uftQW9a87UDOljj%2Bfqg%2BZYgB4aRIH8%2BSjz7yvz5mUeJY0dFfL08zfJ%2B8BC8kNOyeqXR4DlsZo8%2Fs%3D\"}],\"group\":\"cf-nel\",\"max_age\":604800}\n1 < NEL: {\"success_fraction\":0,\"report_to\":\"cf-nel\",\"max_age\":604800}\n1 < Vary: Accept-Encoding\n1 < Server: cloudflare\n1 < CF-RAY: 70350112efe39701-AMS\n1 < alt-svc: h3=\":443\"; ma=86400, h3-29=\":443\"; ma=86400\n{\"page\":2,\"per_page\":6,\"total\":12,\"total_pages\":2,\"data\":[{\"id\":7,\"email\":\"michael.lawson@reqres.in\",\"first_name\":\"Michael\",\"last_name\":\"Lawson\",\"avatar\":\"https:\/\/reqres.in\/img\/faces\/7-image.jpg\"},{\"id\":8,\"email\":\"lindsay.ferguson@reqres.in\",\"first_name\":\"Lindsay\",\"last_name\":\"Ferguson\",\"avatar\":\"https:\/\/reqres.in\/img\/faces\/8-image.jpg\"},{\"id\":9,\"email\":\"tobias.funke@reqres.in\",\"first_name\":\"Tobias\",\"last_name\":\"Funke\",\"avatar\":\"https:\/\/reqres.in\/img\/faces\/9-image.jpg\"},{\"id\":10,\"email\":\"byron.fields@reqres.in\",\"first_name\":\"Byron\",\"last_name\":\"Fields\",\"avatar\":\"https:\/\/reqres.in\/img\/faces\/10-image.jpg\"},{\"id\":11,\"email\":\"george.edwards@reqres.in\",\"first_name\":\"George\",\"last_name\":\"Edwards\",\"avatar\":\"https:\/\/reqres.in\/img\/faces\/11-image.jpg\"},{\"id\":12,\"email\":\"rachel.howell@reqres.in\",\"first_name\":\"Rachel\",\"last_name\":\"Howell\",\"avatar\":\"https:\/\/reqres.in\/img\/faces\/12-image.jpg\"}],\"support\":{\"url\":\"https:\/\/reqres.in\/#support-heading\",\"text\":\"To keep ReqRes free, contributions towards server costs are appreciated!\"}}\n"},{"result":{"nanos":21946,"millis":0.021946,"status":"passed"},"step":{"line":23,"prefix":"Then","index":3,"text":"status 200"}},{"result":{"nanos":46183535,"millis":46.183535,"status":"passed"},"step":{"line":24,"prefix":"And","index":4,"text":"print response.data"},"stepLog":"08:38:20.136 [print] [\n  {\n    \"id\": 7,\n    \"email\": \"michael.lawson@reqres.in\",\n    \"first_name\": \"Michael\",\n    \"last_name\": \"Lawson\",\n    \"avatar\": \"https:\/\/reqres.in\/img\/faces\/7-image.jpg\"\n  },\n  {\n    \"id\": 8,\n    \"email\": \"lindsay.ferguson@reqres.in\",\n    \"first_name\": \"Lindsay\",\n    \"last_name\": \"Ferguson\",\n    \"avatar\": \"https:\/\/reqres.in\/img\/faces\/8-image.jpg\"\n  },\n  {\n    \"id\": 9,\n    \"email\": \"tobias.funke@reqres.in\",\n    \"first_name\": \"Tobias\",\n    \"last_name\": \"Funke\",\n    \"avatar\": \"https:\/\/reqres.in\/img\/faces\/9-image.jpg\"\n  },\n  {\n    \"id\": 10,\n    \"email\": \"byron.fields@reqres.in\",\n    \"first_name\": \"Byron\",\n    \"last_name\": \"Fields\",\n    \"avatar\": \"https:\/\/reqres.in\/img\/faces\/10-image.jpg\"\n  },\n  {\n    \"id\": 11,\n    \"email\": \"george.edwards@reqres.in\",\n    \"first_name\": \"George\",\n    \"last_name\": \"Edwards\",\n    \"avatar\": \"https:\/\/reqres.in\/img\/faces\/11-image.jpg\"\n  },\n  {\n    \"id\": 12,\n    \"email\": \"rachel.howell@reqres.in\",\n    \"first_name\": \"Rachel\",\n    \"last_name\": \"Howell\",\n    \"avatar\": \"https:\/\/reqres.in\/img\/faces\/12-image.jpg\"\n  }\n]\n \n"},{"result":{"nanos":23534179,"errorMessage":"match failed: NOT_EQUALS\n  $ | actual path does not exist (STRING:NULL)\n  '#notpresent'\n  null\n\nsrc\/test\/java\/Features\/Get.feature:25","millis":23.534179,"status":"failed"},"step":{"line":25,"prefix":"And","index":5,"text":"match response.data[0].firstname != null"},"stepLog":"08:38:20.161 src\/test\/java\/Features\/Get.feature:25\nAnd match response.data[0].firstname != null\nmatch failed: NOT_EQUALS\n  $ | actual path does not exist (STRING:NULL)\n  '#notpresent'\n  null\n\nsrc\/test\/java\/Features\/Get.feature:25\n"},{"result":{"nanos":0,"millis":0.0,"status":"skipped"},"step":{"line":26,"prefix":"And","index":6,"text":"match response.data.length = 6"}},{"result":{"nanos":0,"millis":0.0,"status":"skipped"},"step":{"line":27,"prefix":"And","index":7,"text":"match response.data[3].id = 10"}}],"line":19,"description":"","durationMillis":1137.679993,"failed":true,"error":"match failed: NOT_EQUALS\n  $ | actual path does not exist (STRING:NULL)\n  '#notpresent'\n  null\n\nsrc\/test\/java\/Features\/Get.feature:25","executorName":"main","name":"Users assertion","startTime":1651203499009,"refId":"[3:19]","endTime":1651203500161,"exampleIndex":-1}],"callDepth":0,"name":"Get API Demo","description":"","resultDate":"2022-04-29 08:38:20 AM","durationMillis":1137.679993,"passedCount":0}