{"failedCount":0,"prefixedPath":"src\/test\/java\/Features\/Assignment.feature","packageQualifiedName":"src.test.java.Features.Assignment","loopIndex":-1,"relativePath":"src\/test\/java\/Features\/Assignment.feature","scenarioResults":[{"sectionIndex":0,"stepResults":[{"result":{"nanos":47566482,"millis":47.566482,"status":"passed"},"step":{"background":true,"line":4,"prefix":"*","index":0,"text":"url 'https:\/\/reqres.in'"}},{"result":{"nanos":1553255,"millis":1.553255,"status":"passed"},"step":{"background":true,"line":5,"prefix":"*","index":1,"text":"def usersPath = '\/api\/users'"}},{"result":{"nanos":8805374,"millis":8.805374,"status":"passed"},"step":{"line":8,"prefix":"Given","index":0,"text":"path usersPath"}},{"result":{"nanos":1094780975,"millis":1094.780975,"status":"passed"},"step":{"line":9,"prefix":"When","index":1,"text":"method GET"},"stepLog":"09:08:12.226 request:\n1 > GET https:\/\/reqres.in\/api\/users\n1 > Host: reqres.in\n1 > Connection: Keep-Alive\n1 > User-Agent: Apache-HttpClient\/4.5.13 (Java\/11.0.15)\n1 > Accept-Encoding: gzip,deflate\n\n\n09:08:13.089 response time in milliseconds: 856\n1 < 200\n1 < Date: Fri, 29 Apr 2022 04:08:13 GMT\n1 < Content-Type: application\/json; charset=utf-8\n1 < Transfer-Encoding: chunked\n1 < Connection: keep-alive\n1 < X-Powered-By: Express\n1 < Access-Control-Allow-Origin: *\n1 < Etag: W\/\"3e4-2RLXvr5wTg9YQ6aH95CkYoFNuO8\"\n1 < Via: 1.1 vegur\n1 < Cache-Control: max-age=14400\n1 < CF-Cache-Status: HIT\n1 < Age: 1746\n1 < Expect-CT: max-age=604800, report-uri=\"https:\/\/report-uri.cloudflare.com\/cdn-cgi\/beacon\/expect-ct\"\n1 < Report-To: {\"endpoints\":[{\"url\":\"https:\\\/\\\/a.nel.cloudflare.com\\\/report\\\/v3?s=RWtvK0L9wTBFBjecavHoGMBI2L2hsNJ2cY1Ktt0aaUHpeNhK5s9Zj4sVhg4o5c9O%2FwE1NotmuQBw2rRPfY14nbTpgziG6f3MkDhOktUXw%2FePzyBJaSXN5XoBrzs%3D\"}],\"group\":\"cf-nel\",\"max_age\":604800}\n1 < NEL: {\"success_fraction\":0,\"report_to\":\"cf-nel\",\"max_age\":604800}\n1 < Vary: Accept-Encoding\n1 < Server: cloudflare\n1 < CF-RAY: 70352cd95b0191c3-SIN\n1 < alt-svc: h3=\":443\"; ma=86400, h3-29=\":443\"; ma=86400\n{\"page\":1,\"per_page\":6,\"total\":12,\"total_pages\":2,\"data\":[{\"id\":1,\"email\":\"george.bluth@reqres.in\",\"first_name\":\"George\",\"last_name\":\"Bluth\",\"avatar\":\"https:\/\/reqres.in\/img\/faces\/1-image.jpg\"},{\"id\":2,\"email\":\"janet.weaver@reqres.in\",\"first_name\":\"Janet\",\"last_name\":\"Weaver\",\"avatar\":\"https:\/\/reqres.in\/img\/faces\/2-image.jpg\"},{\"id\":3,\"email\":\"emma.wong@reqres.in\",\"first_name\":\"Emma\",\"last_name\":\"Wong\",\"avatar\":\"https:\/\/reqres.in\/img\/faces\/3-image.jpg\"},{\"id\":4,\"email\":\"eve.holt@reqres.in\",\"first_name\":\"Eve\",\"last_name\":\"Holt\",\"avatar\":\"https:\/\/reqres.in\/img\/faces\/4-image.jpg\"},{\"id\":5,\"email\":\"charles.morris@reqres.in\",\"first_name\":\"Charles\",\"last_name\":\"Morris\",\"avatar\":\"https:\/\/reqres.in\/img\/faces\/5-image.jpg\"},{\"id\":6,\"email\":\"tracey.ramos@reqres.in\",\"first_name\":\"Tracey\",\"last_name\":\"Ramos\",\"avatar\":\"https:\/\/reqres.in\/img\/faces\/6-image.jpg\"}],\"support\":{\"url\":\"https:\/\/reqres.in\/#support-heading\",\"text\":\"To keep ReqRes free, contributions towards server costs are appreciated!\"}}\n"},{"result":{"nanos":31339,"millis":0.031339,"status":"passed"},"step":{"line":10,"prefix":"Then","index":2,"text":"status 200"}},{"result":{"nanos":43106258,"millis":43.106258,"status":"passed"},"step":{"line":11,"prefix":"And","index":3,"text":"print response"},"stepLog":"09:08:13.184 [print] {\n  \"page\": 1,\n  \"per_page\": 6,\n  \"total\": 12,\n  \"total_pages\": 2,\n  \"data\": [\n    {\n      \"id\": 1,\n      \"email\": \"george.bluth@reqres.in\",\n      \"first_name\": \"George\",\n      \"last_name\": \"Bluth\",\n      \"avatar\": \"https:\/\/reqres.in\/img\/faces\/1-image.jpg\"\n    },\n    {\n      \"id\": 2,\n      \"email\": \"janet.weaver@reqres.in\",\n      \"first_name\": \"Janet\",\n      \"last_name\": \"Weaver\",\n      \"avatar\": \"https:\/\/reqres.in\/img\/faces\/2-image.jpg\"\n    },\n    {\n      \"id\": 3,\n      \"email\": \"emma.wong@reqres.in\",\n      \"first_name\": \"Emma\",\n      \"last_name\": \"Wong\",\n      \"avatar\": \"https:\/\/reqres.in\/img\/faces\/3-image.jpg\"\n    },\n    {\n      \"id\": 4,\n      \"email\": \"eve.holt@reqres.in\",\n      \"first_name\": \"Eve\",\n      \"last_name\": \"Holt\",\n      \"avatar\": \"https:\/\/reqres.in\/img\/faces\/4-image.jpg\"\n    },\n    {\n      \"id\": 5,\n      \"email\": \"charles.morris@reqres.in\",\n      \"first_name\": \"Charles\",\n      \"last_name\": \"Morris\",\n      \"avatar\": \"https:\/\/reqres.in\/img\/faces\/5-image.jpg\"\n    },\n    {\n      \"id\": 6,\n      \"email\": \"tracey.ramos@reqres.in\",\n      \"first_name\": \"Tracey\",\n      \"last_name\": \"Ramos\",\n      \"avatar\": \"https:\/\/reqres.in\/img\/faces\/6-image.jpg\"\n    }\n  ],\n  \"support\": {\n    \"url\": \"https:\/\/reqres.in\/#support-heading\",\n    \"text\": \"To keep ReqRes free, contributions towards server costs are appreciated!\"\n  }\n}\n \n"},{"result":{"nanos":8325586,"millis":8.325586,"status":"passed"},"step":{"line":12,"prefix":"*","index":4,"text":"def jsonResponse = response"}},{"result":{"nanos":1020116,"millis":1.020116,"status":"passed"},"step":{"line":13,"prefix":"*","index":5,"text":"def totalPages =  jsonResponse.total_pages"}},{"result":{"nanos":683786,"millis":0.683786,"status":"passed"},"step":{"line":14,"prefix":"*","index":6,"text":"def totalRecords = jsonResponse.total"}},{"result":{"nanos":8280912,"millis":8.280912,"status":"passed"},"step":{"line":15,"prefix":"Then","index":7,"text":"match totalPages == 2"}},{"result":{"nanos":1795350,"millis":1.79535,"status":"passed"},"step":{"line":16,"prefix":"And","index":8,"text":"match totalRecords == 12"}}],"executorName":"main","line":7,"name":"Fatch User list and assert total pages and total records","description":"","durationMillis":1215.949433,"startTime":1651205291979,"failed":false,"refId":"[1:7]","endTime":1651205293206,"exampleIndex":-1},{"sectionIndex":1,"stepResults":[{"result":{"nanos":320977,"millis":0.320977,"status":"passed"},"step":{"background":true,"line":4,"prefix":"*","index":0,"text":"url 'https:\/\/reqres.in'"}},{"result":{"nanos":290620,"millis":0.29062,"status":"passed"},"step":{"background":true,"line":5,"prefix":"*","index":1,"text":"def usersPath = '\/api\/users'"}},{"result":{"nanos":153378,"millis":0.153378,"status":"passed"},"step":{"line":19,"prefix":"Given","index":0,"text":"path usersPath"}},{"result":{"nanos":10777537,"millis":10.777537,"status":"passed"},"step":{"line":20,"prefix":"And","index":1,"text":"request {\"name\": \"Waris\", \"Job\": \"QA Engineer\"}"}},{"result":{"nanos":780130586,"millis":780.130586,"status":"passed"},"step":{"line":21,"prefix":"When","index":2,"text":"method POST"},"stepLog":"09:08:13.251 request:\n1 > POST https:\/\/reqres.in\/api\/users\n1 > Content-Type: application\/json; charset=UTF-8\n1 > Content-Length: 36\n1 > Host: reqres.in\n1 > Connection: Keep-Alive\n1 > User-Agent: Apache-HttpClient\/4.5.13 (Java\/11.0.15)\n1 > Accept-Encoding: gzip,deflate\n{\"name\":\"Waris\",\"Job\":\"QA Engineer\"}\n\n09:08:14.003 response time in milliseconds: 752\n1 < 201\n1 < Date: Fri, 29 Apr 2022 04:08:13 GMT\n1 < Content-Type: application\/json; charset=utf-8\n1 < Content-Length: 86\n1 < Connection: keep-alive\n1 < X-Powered-By: Express\n1 < Access-Control-Allow-Origin: *\n1 < Etag: W\/\"56-979b8Pel2Ww1eFbhjS6c5FdFjk4\"\n1 < Via: 1.1 vegur\n1 < CF-Cache-Status: DYNAMIC\n1 < Expect-CT: max-age=604800, report-uri=\"https:\/\/report-uri.cloudflare.com\/cdn-cgi\/beacon\/expect-ct\"\n1 < Report-To: {\"endpoints\":[{\"url\":\"https:\\\/\\\/a.nel.cloudflare.com\\\/report\\\/v3?s=psc8SDiaENa4WqEy2XG33b7K6FX6%2FA%2FgemQwvEK%2ByAK45PvjZYNlLNLuVktkTDvZr1QSIHyPieii74bPPXMyyfrUV2TrffdUPtgfZdmgPDvi2DIR5IgBs%2BJvJjA%3D\"}],\"group\":\"cf-nel\",\"max_age\":604800}\n1 < NEL: {\"success_fraction\":0,\"report_to\":\"cf-nel\",\"max_age\":604800}\n1 < Server: cloudflare\n1 < CF-RAY: 70352cdd0ea789ac-SIN\n1 < alt-svc: h3=\":443\"; ma=86400, h3-29=\":443\"; ma=86400\n{\"name\":\"Waris\",\"Job\":\"QA Engineer\",\"id\":\"781\",\"createdAt\":\"2022-04-29T04:08:13.892Z\"}\n"},{"result":{"nanos":7796,"millis":0.007796,"status":"passed"},"step":{"line":22,"prefix":"Then","index":3,"text":"status 201"}},{"result":{"nanos":415541,"millis":0.415541,"status":"passed"},"step":{"line":23,"prefix":"And","index":4,"text":"print response"},"stepLog":"09:08:14.004 [print] {\n  \"name\": \"Waris\",\n  \"Job\": \"QA Engineer\",\n  \"id\": \"781\",\n  \"createdAt\": \"2022-04-29T04:08:13.892Z\"\n}\n \n"},{"result":{"nanos":616558,"millis":0.616558,"status":"passed"},"step":{"line":24,"prefix":"*","index":5,"text":"def newUserName = response.name"}},{"result":{"nanos":3243640,"millis":3.24364,"status":"passed"},"step":{"line":25,"prefix":"*","index":6,"text":"def newUserJob = response.job"}},{"result":{"nanos":694966,"millis":0.694966,"status":"passed"},"step":{"line":26,"prefix":"*","index":7,"text":"def newUserId = response.id"}}],"executorName":"main","line":18,"name":"Create new user and assert ID assigned","description":"","durationMillis":796.651599,"startTime":1651205293212,"failed":false,"refId":"[2:18]","endTime":1651205294009,"exampleIndex":-1}],"callDepth":0,"name":"CURD operations for o reqres.in","description":"","resultDate":"2022-04-29 09:08:14 AM","durationMillis":2012.601032,"passedCount":2}