{"failedCount":0,"prefixedPath":"src\/test\/java\/Features\/Assignment.feature","packageQualifiedName":"src.test.java.Features.Assignment","loopIndex":-1,"relativePath":"src\/test\/java\/Features\/Assignment.feature","scenarioResults":[{"sectionIndex":0,"stepResults":[{"result":{"nanos":47149727,"millis":47.149727,"status":"passed"},"step":{"background":true,"line":4,"prefix":"*","index":0,"text":"url 'https:\/\/reqres.in'"}},{"result":{"nanos":745095,"millis":0.745095,"status":"passed"},"step":{"background":true,"line":5,"prefix":"*","index":1,"text":"header Accept = 'application\/json'"}},{"result":{"nanos":1226286,"millis":1.226286,"status":"passed"},"step":{"background":true,"line":6,"prefix":"*","index":2,"text":"def usersPath = '\/api\/users'"}},{"result":{"nanos":8282068,"millis":8.282068,"status":"passed"},"step":{"line":9,"prefix":"Given","index":0,"text":"path usersPath"}},{"result":{"nanos":1081164482,"millis":1081.164482,"status":"passed"},"step":{"line":10,"prefix":"When","index":1,"text":"method GET"},"stepLog":"09:37:11.115 request:\n1 > GET https:\/\/reqres.in\/api\/users\n1 > Accept: application\/json\n1 > Host: reqres.in\n1 > Connection: Keep-Alive\n1 > User-Agent: Apache-HttpClient\/4.5.13 (Java\/11.0.15)\n1 > Accept-Encoding: gzip,deflate\n\n\n09:37:11.931 response time in milliseconds: 809\n1 < 200\n1 < Date: Fri, 29 Apr 2022 04:37:11 GMT\n1 < Content-Type: application\/json; charset=utf-8\n1 < Transfer-Encoding: chunked\n1 < Connection: keep-alive\n1 < X-Powered-By: Express\n1 < Access-Control-Allow-Origin: *\n1 < Etag: W\/\"3e4-2RLXvr5wTg9YQ6aH95CkYoFNuO8\"\n1 < Via: 1.1 vegur\n1 < Cache-Control: max-age=14400\n1 < CF-Cache-Status: HIT\n1 < Age: 3863\n1 < Expect-CT: max-age=604800, report-uri=\"https:\/\/report-uri.cloudflare.com\/cdn-cgi\/beacon\/expect-ct\"\n1 < Report-To: {\"endpoints\":[{\"url\":\"https:\\\/\\\/a.nel.cloudflare.com\\\/report\\\/v3?s=7MZK5SOedvLcFShzX9AGDBvssRWN58lRhW0eer%2BJylV5lLpzzCSLPm01rZyWN%2BugbiK3f19n%2Bk6xGt9BjVZDgEpkP1OEP21S26GHZj1shNE6c6%2FWRbdkZRVLTrc%3D\"}],\"group\":\"cf-nel\",\"max_age\":604800}\n1 < NEL: {\"success_fraction\":0,\"report_to\":\"cf-nel\",\"max_age\":604800}\n1 < Vary: Accept-Encoding\n1 < Server: cloudflare\n1 < CF-RAY: 7035574d0baaa075-SIN\n1 < alt-svc: h3=\":443\"; ma=86400, h3-29=\":443\"; ma=86400\n{\"page\":1,\"per_page\":6,\"total\":12,\"total_pages\":2,\"data\":[{\"id\":1,\"email\":\"george.bluth@reqres.in\",\"first_name\":\"George\",\"last_name\":\"Bluth\",\"avatar\":\"https:\/\/reqres.in\/img\/faces\/1-image.jpg\"},{\"id\":2,\"email\":\"janet.weaver@reqres.in\",\"first_name\":\"Janet\",\"last_name\":\"Weaver\",\"avatar\":\"https:\/\/reqres.in\/img\/faces\/2-image.jpg\"},{\"id\":3,\"email\":\"emma.wong@reqres.in\",\"first_name\":\"Emma\",\"last_name\":\"Wong\",\"avatar\":\"https:\/\/reqres.in\/img\/faces\/3-image.jpg\"},{\"id\":4,\"email\":\"eve.holt@reqres.in\",\"first_name\":\"Eve\",\"last_name\":\"Holt\",\"avatar\":\"https:\/\/reqres.in\/img\/faces\/4-image.jpg\"},{\"id\":5,\"email\":\"charles.morris@reqres.in\",\"first_name\":\"Charles\",\"last_name\":\"Morris\",\"avatar\":\"https:\/\/reqres.in\/img\/faces\/5-image.jpg\"},{\"id\":6,\"email\":\"tracey.ramos@reqres.in\",\"first_name\":\"Tracey\",\"last_name\":\"Ramos\",\"avatar\":\"https:\/\/reqres.in\/img\/faces\/6-image.jpg\"}],\"support\":{\"url\":\"https:\/\/reqres.in\/#support-heading\",\"text\":\"To keep ReqRes free, contributions towards server costs are appreciated!\"}}\n"},{"result":{"nanos":31066,"millis":0.031066,"status":"passed"},"step":{"line":11,"prefix":"Then","index":2,"text":"status 200"}},{"result":{"nanos":45272873,"millis":45.272873,"status":"passed"},"step":{"line":12,"prefix":"And","index":3,"text":"print response"},"stepLog":"09:37:12.027 [print] {\n  \"page\": 1,\n  \"per_page\": 6,\n  \"total\": 12,\n  \"total_pages\": 2,\n  \"data\": [\n    {\n      \"id\": 1,\n      \"email\": \"george.bluth@reqres.in\",\n      \"first_name\": \"George\",\n      \"last_name\": \"Bluth\",\n      \"avatar\": \"https:\/\/reqres.in\/img\/faces\/1-image.jpg\"\n    },\n    {\n      \"id\": 2,\n      \"email\": \"janet.weaver@reqres.in\",\n      \"first_name\": \"Janet\",\n      \"last_name\": \"Weaver\",\n      \"avatar\": \"https:\/\/reqres.in\/img\/faces\/2-image.jpg\"\n    },\n    {\n      \"id\": 3,\n      \"email\": \"emma.wong@reqres.in\",\n      \"first_name\": \"Emma\",\n      \"last_name\": \"Wong\",\n      \"avatar\": \"https:\/\/reqres.in\/img\/faces\/3-image.jpg\"\n    },\n    {\n      \"id\": 4,\n      \"email\": \"eve.holt@reqres.in\",\n      \"first_name\": \"Eve\",\n      \"last_name\": \"Holt\",\n      \"avatar\": \"https:\/\/reqres.in\/img\/faces\/4-image.jpg\"\n    },\n    {\n      \"id\": 5,\n      \"email\": \"charles.morris@reqres.in\",\n      \"first_name\": \"Charles\",\n      \"last_name\": \"Morris\",\n      \"avatar\": \"https:\/\/reqres.in\/img\/faces\/5-image.jpg\"\n    },\n    {\n      \"id\": 6,\n      \"email\": \"tracey.ramos@reqres.in\",\n      \"first_name\": \"Tracey\",\n      \"last_name\": \"Ramos\",\n      \"avatar\": \"https:\/\/reqres.in\/img\/faces\/6-image.jpg\"\n    }\n  ],\n  \"support\": {\n    \"url\": \"https:\/\/reqres.in\/#support-heading\",\n    \"text\": \"To keep ReqRes free, contributions towards server costs are appreciated!\"\n  }\n}\n \n"},{"result":{"nanos":8045242,"millis":8.045242,"status":"passed"},"step":{"line":13,"prefix":"*","index":4,"text":"def jsonResponse = response"}},{"result":{"nanos":1267686,"millis":1.267686,"status":"passed"},"step":{"line":14,"prefix":"*","index":5,"text":"def totalPages =  jsonResponse.total_pages"}},{"result":{"nanos":854420,"millis":0.85442,"status":"passed"},"step":{"line":15,"prefix":"*","index":6,"text":"def totalRecords = jsonResponse.total"}},{"result":{"nanos":7126733,"millis":7.126733,"status":"passed"},"step":{"line":16,"prefix":"Then","index":7,"text":"match totalPages == 2"}},{"result":{"nanos":1389989,"millis":1.389989,"status":"passed"},"step":{"line":17,"prefix":"And","index":8,"text":"match totalRecords == 12"}}],"executorName":"main","line":8,"name":"Fatch User list and assert total pages and total records","description":"","durationMillis":1202.555667,"startTime":1651207030830,"failed":false,"refId":"[1:8]","endTime":1651207032047,"exampleIndex":-1},{"sectionIndex":1,"stepResults":[{"result":{"nanos":426645,"millis":0.426645,"status":"passed"},"step":{"background":true,"line":4,"prefix":"*","index":0,"text":"url 'https:\/\/reqres.in'"}},{"result":{"nanos":310786,"millis":0.310786,"status":"passed"},"step":{"background":true,"line":5,"prefix":"*","index":1,"text":"header Accept = 'application\/json'"}},{"result":{"nanos":376161,"millis":0.376161,"status":"passed"},"step":{"background":true,"line":6,"prefix":"*","index":2,"text":"def usersPath = '\/api\/users'"}},{"result":{"nanos":173709,"millis":0.173709,"status":"passed"},"step":{"line":20,"prefix":"Given","index":0,"text":"path usersPath"}},{"result":{"nanos":10079637,"millis":10.079637,"status":"passed"},"step":{"line":21,"prefix":"And","index":1,"text":"request {\"name\": \"Waris\", \"Job\": \"QA Engineer\"}"}},{"result":{"nanos":842759441,"millis":842.759441,"status":"passed"},"step":{"line":22,"prefix":"When","index":2,"text":"method POST"},"stepLog":"09:37:12.091 request:\n1 > POST https:\/\/reqres.in\/api\/users\n1 > Accept: application\/json\n1 > Content-Type: application\/json; charset=UTF-8\n1 > Content-Length: 36\n1 > Host: reqres.in\n1 > Connection: Keep-Alive\n1 > User-Agent: Apache-HttpClient\/4.5.13 (Java\/11.0.15)\n1 > Accept-Encoding: gzip,deflate\n{\"name\":\"Waris\",\"Job\":\"QA Engineer\"}\n\n09:37:12.905 response time in milliseconds: 813\n1 < 201\n1 < Date: Fri, 29 Apr 2022 04:37:12 GMT\n1 < Content-Type: application\/json; charset=utf-8\n1 < Content-Length: 86\n1 < Connection: keep-alive\n1 < X-Powered-By: Express\n1 < Access-Control-Allow-Origin: *\n1 < Etag: W\/\"56-i\/Y5nfBRyVHMRIWEJd92iWydfts\"\n1 < Via: 1.1 vegur\n1 < CF-Cache-Status: DYNAMIC\n1 < Expect-CT: max-age=604800, report-uri=\"https:\/\/report-uri.cloudflare.com\/cdn-cgi\/beacon\/expect-ct\"\n1 < Report-To: {\"endpoints\":[{\"url\":\"https:\\\/\\\/a.nel.cloudflare.com\\\/report\\\/v3?s=R3Dsd%2BVRLUN8slNyabFe0MDF2KkwwK%2F18IxNpU2OxwyNn1KXqukxnpq0lwSyB0CJ%2FBeLZU%2Fys9ZkwM4BsH%2BgfmCAS2r1l41wUQQbsN0dFKJS2IHTfsHc40PADj0%3D\"}],\"group\":\"cf-nel\",\"max_age\":604800}\n1 < NEL: {\"success_fraction\":0,\"report_to\":\"cf-nel\",\"max_age\":604800}\n1 < Server: cloudflare\n1 < CF-RAY: 70355750ba3d6bdb-SIN\n1 < alt-svc: h3=\":443\"; ma=86400, h3-29=\":443\"; ma=86400\n{\"name\":\"Waris\",\"Job\":\"QA Engineer\",\"id\":\"320\",\"createdAt\":\"2022-04-29T04:37:12.713Z\"}\n"},{"result":{"nanos":25875,"millis":0.025875,"status":"passed"},"step":{"line":23,"prefix":"Then","index":3,"text":"status 201"}},{"result":{"nanos":1612649,"millis":1.612649,"status":"passed"},"step":{"line":24,"prefix":"And","index":4,"text":"print response"},"stepLog":"09:37:12.909 [print] {\n  \"name\": \"Waris\",\n  \"Job\": \"QA Engineer\",\n  \"id\": \"320\",\n  \"createdAt\": \"2022-04-29T04:37:12.713Z\"\n}\n \n"},{"result":{"nanos":1676029,"millis":1.676029,"status":"passed"},"step":{"line":25,"prefix":"*","index":5,"text":"def newUserName = response.name"}},{"result":{"nanos":7646347,"millis":7.646347,"status":"passed"},"step":{"line":26,"prefix":"*","index":6,"text":"def newUserJob = response.job"}},{"result":{"nanos":1398566,"millis":1.398566,"status":"passed"},"step":{"line":27,"prefix":"*","index":7,"text":"def newUserId = response.id"}},{"result":{"nanos":1408115,"millis":1.408115,"status":"passed"},"step":{"line":28,"prefix":"And","index":8,"text":"match newUserId != null"}},{"result":{"nanos":1515697,"millis":1.515697,"status":"passed"},"step":{"line":29,"prefix":"And","index":9,"text":"print newUserId"},"stepLog":"09:37:12.924 [print] 320 \n"}],"executorName":"main","line":19,"name":"Create new user and assert ID assigned","description":"","durationMillis":869.409657,"startTime":1651207032053,"failed":false,"refId":"[2:19]","endTime":1651207032924,"exampleIndex":-1}],"callDepth":0,"name":"CURD operations for o reqres.in","description":"","resultDate":"2022-04-29 09:37:12 AM","durationMillis":2071.965324,"passedCount":2}