{"failedCount":1,"prefixedPath":"src\/test\/java\/Features\/Get.feature","packageQualifiedName":"src.test.java.Features.Get","loopIndex":-1,"relativePath":"src\/test\/java\/Features\/Get.feature","scenarioResults":[{"sectionIndex":2,"stepResults":[{"result":{"nanos":62035085,"millis":62.035085,"status":"passed"},"step":{"background":true,"line":4,"prefix":"*","index":0,"text":"url 'https:\/\/reqres.in\/api'"}},{"result":{"nanos":878472,"millis":0.878472,"status":"passed"},"step":{"background":true,"line":5,"prefix":"*","index":1,"text":"header Accept = 'application\/json'"}},{"result":{"nanos":519619,"millis":0.519619,"status":"passed"},"step":{"line":20,"prefix":"Given","index":0,"text":"path '\/users'"}},{"result":{"nanos":1769442,"millis":1.769442,"status":"passed"},"step":{"line":21,"prefix":"And","index":1,"text":"param page = 2"}},{"result":{"nanos":1256500792,"millis":1256.500792,"status":"passed"},"step":{"line":22,"prefix":"When","index":2,"text":"method GET"},"stepLog":"08:40:05.768 request:\n1 > GET https:\/\/reqres.in\/api\/users?page=2\n1 > Accept: application\/json\n1 > Host: reqres.in\n1 > Connection: Keep-Alive\n1 > User-Agent: Apache-HttpClient\/4.5.13 (Java\/11.0.15)\n1 > Accept-Encoding: gzip,deflate\n\n\n08:40:06.722 response time in milliseconds: 946\n1 < 200\n1 < Date: Fri, 29 Apr 2022 03:40:06 GMT\n1 < Content-Type: application\/json; charset=utf-8\n1 < Transfer-Encoding: chunked\n1 < Connection: keep-alive\n1 < X-Powered-By: Express\n1 < Access-Control-Allow-Origin: *\n1 < Etag: W\/\"406-ut0vzoCuidvyMf8arZpMpJ6ZRDw\"\n1 < Via: 1.1 vegur\n1 < Cache-Control: max-age=14400\n1 < CF-Cache-Status: HIT\n1 < Age: 6578\n1 < Expect-CT: max-age=604800, report-uri=\"https:\/\/report-uri.cloudflare.com\/cdn-cgi\/beacon\/expect-ct\"\n1 < Report-To: {\"endpoints\":[{\"url\":\"https:\\\/\\\/a.nel.cloudflare.com\\\/report\\\/v3?s=x5vWg6urGSunLya0Qy5nkZ8jPY64MOvK0mycvCGUNosThUxgxHikSFD00ZkyNuPm84q1XwApfY0nzgD3rUjwgDgAebI3YjVU4J7xqE2N0TXAiEECf64OJDtEGBk%3D\"}],\"group\":\"cf-nel\",\"max_age\":604800}\n1 < NEL: {\"success_fraction\":0,\"report_to\":\"cf-nel\",\"max_age\":604800}\n1 < Vary: Accept-Encoding\n1 < Server: cloudflare\n1 < CF-RAY: 703503ad7bbafa2c-AMS\n1 < alt-svc: h3=\":443\"; ma=86400, h3-29=\":443\"; ma=86400\n{\"page\":2,\"per_page\":6,\"total\":12,\"total_pages\":2,\"data\":[{\"id\":7,\"email\":\"michael.lawson@reqres.in\",\"first_name\":\"Michael\",\"last_name\":\"Lawson\",\"avatar\":\"https:\/\/reqres.in\/img\/faces\/7-image.jpg\"},{\"id\":8,\"email\":\"lindsay.ferguson@reqres.in\",\"first_name\":\"Lindsay\",\"last_name\":\"Ferguson\",\"avatar\":\"https:\/\/reqres.in\/img\/faces\/8-image.jpg\"},{\"id\":9,\"email\":\"tobias.funke@reqres.in\",\"first_name\":\"Tobias\",\"last_name\":\"Funke\",\"avatar\":\"https:\/\/reqres.in\/img\/faces\/9-image.jpg\"},{\"id\":10,\"email\":\"byron.fields@reqres.in\",\"first_name\":\"Byron\",\"last_name\":\"Fields\",\"avatar\":\"https:\/\/reqres.in\/img\/faces\/10-image.jpg\"},{\"id\":11,\"email\":\"george.edwards@reqres.in\",\"first_name\":\"George\",\"last_name\":\"Edwards\",\"avatar\":\"https:\/\/reqres.in\/img\/faces\/11-image.jpg\"},{\"id\":12,\"email\":\"rachel.howell@reqres.in\",\"first_name\":\"Rachel\",\"last_name\":\"Howell\",\"avatar\":\"https:\/\/reqres.in\/img\/faces\/12-image.jpg\"}],\"support\":{\"url\":\"https:\/\/reqres.in\/#support-heading\",\"text\":\"To keep ReqRes free, contributions towards server costs are appreciated!\"}}\n"},{"result":{"nanos":27073,"millis":0.027073,"status":"passed"},"step":{"line":23,"prefix":"Then","index":3,"text":"status 200"}},{"result":{"nanos":46342034,"millis":46.342034,"status":"passed"},"step":{"line":24,"prefix":"And","index":4,"text":"print response.data.length"},"stepLog":"08:40:06.799 [print] 6 \n"},{"result":{"nanos":23232538,"millis":23.232538,"status":"passed"},"step":{"line":25,"prefix":"And","index":5,"text":"match response.data[0].first_name != null"}},{"result":{"nanos":60725,"errorMessage":"syntax error, expected '==' for match\nsrc\/test\/java\/Features\/Get.feature:26","millis":0.060725,"status":"failed"},"step":{"line":26,"prefix":"And","index":6,"text":"match response.data.length = 6"},"stepLog":"08:40:06.823 src\/test\/java\/Features\/Get.feature:26\nAnd match response.data.length = 6\nsyntax error, expected '==' for match\nsrc\/test\/java\/Features\/Get.feature:26\n"},{"result":{"nanos":0,"millis":0.0,"status":"skipped"},"step":{"line":27,"prefix":"And","index":7,"text":"match response.data[3].id = 10"}}],"line":19,"description":"","durationMillis":1391.36578,"failed":true,"error":"syntax error, expected '==' for match\nsrc\/test\/java\/Features\/Get.feature:26","executorName":"main","name":"Users assertion","startTime":1651203605414,"refId":"[3:19]","endTime":1651203606823,"exampleIndex":-1}],"callDepth":0,"name":"Get API Demo","description":"","resultDate":"2022-04-29 08:40:06 AM","durationMillis":1391.36578,"passedCount":0}